<svg width="144" height="144" viewBox="0 0 144 144" fill="none" xmlns="http://www.w3.org/2000/svg">
<path d="M7.52332 99.3C3.967 90.9112 2 81.6853 2 72C2 33.3401 33.3401 2 72 2C110.66 2 142 33.3401 142 72C142 110.66 110.66 142 72 142C67.9435 142 63.9676 141.655 60.1 140.993C56.0006 140.291 52.0229 139.232 48.2 137.85M14.4773 111.9C17.1844 115.795 20.277 119.403 23.7 122.667C25.4799 124.364 27.3492 125.969 29.3 127.472C31.0993 128.86 32.968 130.161 34.9 131.371" stroke="#F4C06F" stroke-width="3"/>
</svg>
