<svg width="1143" height="2" viewBox="0 0 1143 2" fill="none" xmlns="http://www.w3.org/2000/svg">
<path d="M0 1L343.5 1C364.882 1 343.806 1 378 1M1143 1C1143 1 645.025 1 399 1" stroke="#FFD991" stroke-width="1.5"/>
</svg>
