<svg width="30" height="25" viewBox="0 0 30 25" fill="none" xmlns="http://www.w3.org/2000/svg">
<mask id="path-1-inside-1_1227_4159" fill="white">
<path d="M0.382141 9.54556C1.50134 5.20345 5.08513 1.57767 9.41234 0.408695C12.1461 -0.330078 15.5644 -0.0529493 18.2425 1.12397C22.1438 2.83856 25.6429 7.56767 25.6429 11.1261C25.6429 12.5514 25.0328 12.7204 24.7548 11.3721C23.8138 6.80609 21.6421 3.83442 17.9475 2.05763C16.2278 1.23074 15.0239 1.12397 12.4549 1.12397C8.85308 1.12397 6.83238 2.06385 4.4726 4.37484C2.18162 6.61846 1.14217 9.14508 1.13229 12.4951C1.1217 16.0314 2.21797 18.4091 5.01351 20.9112C7.40152 23.0487 9.71437 23.886 13.2053 23.8766C16.0916 23.8687 16.7782 24.5346 14.2639 24.9032C10.9094 25.395 6.86731 23.9841 3.98674 21.3162C0.604078 18.1831 -0.725418 13.8414 0.382141 9.54556Z"/>
<path d="M13.4329 10.5946C13.3564 10.5946 13.2936 8.71625 13.2936 6.4208V2.24664L14.4403 2.46848C15.8093 2.73317 17.5276 3.35618 17.5276 3.58735C17.5276 3.851 13.5868 10.5946 13.4329 10.5946Z"/>
<path d="M8.35382 3.76324C8.35382 3.5877 8.48717 3.28206 9.97405 2.76435C11.4609 2.24664 12.235 2.24664 12.235 2.24664L12.5879 6.62088C12.5879 8.80644 12.5279 10.5946 12.4549 10.5946C12.2428 10.5946 8.35382 4.11638 8.35382 3.76324Z"/>
<path d="M4.48425 7.02309C4.49978 6.49925 5.48314 5.37036 6.56635 4.63262L7.42515 4.04796L9.43986 7.40768C10.5481 9.25565 11.4059 10.8189 11.3459 10.8818C11.1088 11.1309 4.47331 7.39904 4.48425 7.02309Z"/>
<path d="M14.4064 11.0929C14.3394 11.0359 15.182 9.42324 16.2786 7.50928C17.3756 5.59531 18.4175 4.0293 18.5943 4.0293C19.1394 4.0293 21.4551 6.48439 21.3118 6.9101C21.1742 7.31888 14.6298 11.2826 14.4064 11.0929Z"/>
<path d="M2.86859 10.7304C2.99985 10.0452 3.25179 9.11225 3.42856 8.65717C3.60498 8.20243 3.82726 7.83028 3.92217 7.83028C4.08942 7.83028 10.498 11.5718 10.7944 11.8424C10.8752 11.9163 9.07114 11.9768 6.78545 11.9768H2.62972L2.86859 10.7304Z"/>
<path d="M15.0602 11.9716C15.0588 11.8738 16.5266 10.9187 18.3215 9.84929C20.1164 8.77983 21.7084 7.88799 21.8587 7.8676C22.2557 7.81335 22.847 9.50582 22.9275 10.9253L22.9966 12.1496H19.0297C16.8477 12.1496 15.0613 12.0694 15.0602 11.9716Z"/>
<path d="M3.74399 16.9734C3.40033 16.7653 2.71334 14.5356 2.71052 13.6181C2.70876 13.0767 3.13887 13.0134 6.82497 13.0134C9.08878 13.0134 10.8547 13.0984 10.7485 13.2021C10.1011 13.8365 3.9938 17.1244 3.74399 16.9734Z"/>
<path d="M16.7401 14.2799C15.8146 13.7166 15.0577 13.2011 15.0577 13.1347C15.0577 13.068 16.5132 13.0134 18.2922 13.0134C20.0709 13.0134 21.4547 13.0839 21.3668 13.17C21.279 13.2557 20.5804 13.7712 19.8147 14.3151L18.4221 15.3037L16.7401 14.2799Z"/>
<path d="M19.4061 16.2406C21.3668 14.1155 22.7934 13.7812 24.4948 13.3887C25.2234 13.2204 26.6711 13.0673 27.7123 13.048L29.6053 13.0134L29.3583 14.9502C28.7821 19.4661 27.0973 22.4993 24.408 23.8607C22.9458 24.6009 18.2333 25.1147 18.2333 24.5342C18.2333 24.3659 19.5938 22.9102 21.2568 21.2989C25.5949 17.0953 25.6143 16.5656 21.2959 20.2322C19.2569 21.9634 17.4955 23.3797 17.3815 23.3797C17.2679 23.3797 17.1783 22.5632 17.1825 21.5656C17.1903 19.7101 17.6912 18.0991 19.4061 16.2406Z"/>
<path d="M4.48001 18.0525C4.48389 17.8469 6.03215 16.8016 7.92018 15.7301C9.80822 14.6589 11.4017 13.8251 11.4609 13.878C11.6441 14.0404 7.60016 20.9609 7.32177 20.9609C6.9079 20.9609 4.47189 18.4678 4.48001 18.0525Z"/>
<path d="M16.3467 17.4682C16.0139 17.0387 14.3521 14.0673 14.3521 13.9022C14.3521 13.7937 15.1439 14.1323 16.1113 14.6548C17.0788 15.1776 17.8674 15.6828 17.8635 15.7778C17.8526 16.0625 16.4599 17.6144 16.3467 17.4682Z"/>
<path d="M13.5603 22.4637C13.4135 22.3749 13.2936 20.4108 13.2936 18.0991C13.2936 13.4937 13.2417 13.5297 15.1421 16.8144C15.9035 18.1313 16.0139 18.6686 15.8615 20.3238C15.6978 22.1002 15.5972 22.2937 14.7543 22.4516C14.2441 22.547 13.7067 22.5525 13.5603 22.4637Z"/>
<path d="M9.97405 18.1119C11.0234 16.3725 11.8822 14.8248 11.8822 14.6724C11.8822 14.5204 12.041 14.3956 12.235 14.3956C12.4499 14.3956 12.5879 15.9651 12.5879 18.4133V22.4309L10.8353 22.2661C7.84751 21.9848 7.79351 21.7256 9.97405 18.1119Z"/>
</mask>
<path d="M0.382141 9.54556C1.50134 5.20345 5.08513 1.57767 9.41234 0.408695C12.1461 -0.330078 15.5644 -0.0529493 18.2425 1.12397C22.1438 2.83856 25.6429 7.56767 25.6429 11.1261C25.6429 12.5514 25.0328 12.7204 24.7548 11.3721C23.8138 6.80609 21.6421 3.83442 17.9475 2.05763C16.2278 1.23074 15.0239 1.12397 12.4549 1.12397C8.85308 1.12397 6.83238 2.06385 4.4726 4.37484C2.18162 6.61846 1.14217 9.14508 1.13229 12.4951C1.1217 16.0314 2.21797 18.4091 5.01351 20.9112C7.40152 23.0487 9.71437 23.886 13.2053 23.8766C16.0916 23.8687 16.7782 24.5346 14.2639 24.9032C10.9094 25.395 6.86731 23.9841 3.98674 21.3162C0.604078 18.1831 -0.725418 13.8414 0.382141 9.54556Z" stroke="#FFD991" stroke-width="2" mask="url(#path-1-inside-1_1227_4159)"/>
<path d="M13.4329 10.5946C13.3564 10.5946 13.2936 8.71625 13.2936 6.4208V2.24664L14.4403 2.46848C15.8093 2.73317 17.5276 3.35618 17.5276 3.58735C17.5276 3.851 13.5868 10.5946 13.4329 10.5946Z" stroke="#FFD991" stroke-width="2" mask="url(#path-1-inside-1_1227_4159)"/>
<path d="M8.35382 3.76324C8.35382 3.5877 8.48717 3.28206 9.97405 2.76435C11.4609 2.24664 12.235 2.24664 12.235 2.24664L12.5879 6.62088C12.5879 8.80644 12.5279 10.5946 12.4549 10.5946C12.2428 10.5946 8.35382 4.11638 8.35382 3.76324Z" stroke="#FFD991" stroke-width="2" mask="url(#path-1-inside-1_1227_4159)"/>
<path d="M4.48425 7.02309C4.49978 6.49925 5.48314 5.37036 6.56635 4.63262L7.42515 4.04796L9.43986 7.40768C10.5481 9.25565 11.4059 10.8189 11.3459 10.8818C11.1088 11.1309 4.47331 7.39904 4.48425 7.02309Z" stroke="#FFD991" stroke-width="2" mask="url(#path-1-inside-1_1227_4159)"/>
<path d="M14.4064 11.0929C14.3394 11.0359 15.182 9.42324 16.2786 7.50928C17.3756 5.59531 18.4175 4.0293 18.5943 4.0293C19.1394 4.0293 21.4551 6.48439 21.3118 6.9101C21.1742 7.31888 14.6298 11.2826 14.4064 11.0929Z" stroke="#FFD991" stroke-width="2" mask="url(#path-1-inside-1_1227_4159)"/>
<path d="M2.86859 10.7304C2.99985 10.0452 3.25179 9.11225 3.42856 8.65717C3.60498 8.20243 3.82726 7.83028 3.92217 7.83028C4.08942 7.83028 10.498 11.5718 10.7944 11.8424C10.8752 11.9163 9.07114 11.9768 6.78545 11.9768H2.62972L2.86859 10.7304Z" stroke="#FFD991" stroke-width="2" mask="url(#path-1-inside-1_1227_4159)"/>
<path d="M15.0602 11.9716C15.0588 11.8738 16.5266 10.9187 18.3215 9.84929C20.1164 8.77983 21.7084 7.88799 21.8587 7.8676C22.2557 7.81335 22.847 9.50582 22.9275 10.9253L22.9966 12.1496H19.0297C16.8477 12.1496 15.0613 12.0694 15.0602 11.9716Z" stroke="#FFD991" stroke-width="2" mask="url(#path-1-inside-1_1227_4159)"/>
<path d="M3.74399 16.9734C3.40033 16.7653 2.71334 14.5356 2.71052 13.6181C2.70876 13.0767 3.13887 13.0134 6.82497 13.0134C9.08878 13.0134 10.8547 13.0984 10.7485 13.2021C10.1011 13.8365 3.9938 17.1244 3.74399 16.9734Z" stroke="#FFD991" stroke-width="2" mask="url(#path-1-inside-1_1227_4159)"/>
<path d="M16.7401 14.2799C15.8146 13.7166 15.0577 13.2011 15.0577 13.1347C15.0577 13.068 16.5132 13.0134 18.2922 13.0134C20.0709 13.0134 21.4547 13.0839 21.3668 13.17C21.279 13.2557 20.5804 13.7712 19.8147 14.3151L18.4221 15.3037L16.7401 14.2799Z" stroke="#FFD991" stroke-width="2" mask="url(#path-1-inside-1_1227_4159)"/>
<path d="M19.4061 16.2406C21.3668 14.1155 22.7934 13.7812 24.4948 13.3887C25.2234 13.2204 26.6711 13.0673 27.7123 13.048L29.6053 13.0134L29.3583 14.9502C28.7821 19.4661 27.0973 22.4993 24.408 23.8607C22.9458 24.6009 18.2333 25.1147 18.2333 24.5342C18.2333 24.3659 19.5938 22.9102 21.2568 21.2989C25.5949 17.0953 25.6143 16.5656 21.2959 20.2322C19.2569 21.9634 17.4955 23.3797 17.3815 23.3797C17.2679 23.3797 17.1783 22.5632 17.1825 21.5656C17.1903 19.7101 17.6912 18.0991 19.4061 16.2406Z" stroke="#FFD991" stroke-width="2" mask="url(#path-1-inside-1_1227_4159)"/>
<path d="M4.48001 18.0525C4.48389 17.8469 6.03215 16.8016 7.92018 15.7301C9.80822 14.6589 11.4017 13.8251 11.4609 13.878C11.6441 14.0404 7.60016 20.9609 7.32177 20.9609C6.9079 20.9609 4.47189 18.4678 4.48001 18.0525Z" stroke="#FFD991" stroke-width="2" mask="url(#path-1-inside-1_1227_4159)"/>
<path d="M16.3467 17.4682C16.0139 17.0387 14.3521 14.0673 14.3521 13.9022C14.3521 13.7937 15.1439 14.1323 16.1113 14.6548C17.0788 15.1776 17.8674 15.6828 17.8635 15.7778C17.8526 16.0625 16.4599 17.6144 16.3467 17.4682Z" stroke="#FFD991" stroke-width="2" mask="url(#path-1-inside-1_1227_4159)"/>
<path d="M13.5603 22.4637C13.4135 22.3749 13.2936 20.4108 13.2936 18.0991C13.2936 13.4937 13.2417 13.5297 15.1421 16.8144C15.9035 18.1313 16.0139 18.6686 15.8615 20.3238C15.6978 22.1002 15.5972 22.2937 14.7543 22.4516C14.2441 22.547 13.7067 22.5525 13.5603 22.4637Z" stroke="#FFD991" stroke-width="2" mask="url(#path-1-inside-1_1227_4159)"/>
<path d="M9.97405 18.1119C11.0234 16.3725 11.8822 14.8248 11.8822 14.6724C11.8822 14.5204 12.041 14.3956 12.235 14.3956C12.4499 14.3956 12.5879 15.9651 12.5879 18.4133V22.4309L10.8353 22.2661C7.84751 21.9848 7.79351 21.7256 9.97405 18.1119Z" stroke="#FFD991" stroke-width="2" mask="url(#path-1-inside-1_1227_4159)"/>
</svg>
