<svg width="19" height="14" viewBox="0 0 19 14" fill="none" xmlns="http://www.w3.org/2000/svg">
<path d="M9.13987 8.24904L9.47168 8.54338L9.80349 8.24904L17.5535 1.37404L16.8899 0.625963L9.47168 7.20662L2.05349 0.625963L1.38987 1.37404L9.13987 8.24904ZM1.23043 1.75042V1.75C1.23043 1.06037 1.78858 0.5 2.47168 0.5H16.4717C17.158 0.5 17.7217 1.06364 17.7217 1.75V12.25C17.7217 12.9364 17.158 13.5 16.4717 13.5H2.47168C1.78538 13.5 1.22178 12.9365 1.22168 12.2502C1.22168 12.2501 1.22168 12.2501 1.22168 12.25L1.23043 1.75042Z" stroke="#FFD990"/>
</svg>
