<svg width="85" height="104" viewBox="0 0 85 104" fill="none" xmlns="http://www.w3.org/2000/svg">
<circle cx="42.5" cy="61.5" r="42.5" fill="#2C3D32"/>
<path fill-rule="evenodd" clip-rule="evenodd" d="M30.8168 20.601L30.7876 41.2019L25.3938 41.2316L20 41.2613V43.3152V45.3691L25.3938 45.3988L30.7876 45.4285L30.8179 49.6265L30.8482 53.8246H25.4241H20V55.9379V58.0512L21.471 58.0672C22.2801 58.076 24.6814 58.1146 26.8072 58.1529L30.6723 58.2226L30.7426 63.4773C30.7813 66.3674 30.8203 68.7974 30.8292 68.8774C30.8418 68.9904 31.3135 69.0158 32.9509 68.9916L35.0566 68.9604L35.0866 63.5058L35.1164 58.0512H56.4023H77.6879V55.9379V53.8246H56.4011H35.1142V49.6734V45.5221L37.9698 45.447C39.5404 45.4056 44.4597 45.3695 48.9017 45.3668C53.3436 45.3639 59.0547 45.3165 61.593 45.2612C66.6782 45.1504 67.2027 45.0895 69.1501 44.3832C70.7784 43.7928 74.002 42.1859 75.3804 41.2776C80.1659 38.1245 83.8878 31.9857 84.8 25.7417C85.0905 23.7527 85.0612 20.6067 84.7342 18.698C84.2877 16.0916 83.09 12.9904 81.6325 10.6671C79.5139 7.28954 76.5176 4.51003 72.9575 2.61982C71.5104 1.85137 68.8252 0.829674 67.6145 0.5867C65.372 0.136623 64.3761 0.110464 47.3733 0.0544897L30.8459 0L30.8168 20.601ZM65.503 4.46456C67.3904 4.69577 70.4985 5.89876 72.432 7.14664C74.0222 8.17291 76.7548 10.9252 78.019 12.7739C79.1198 14.3837 80.1038 16.8597 80.5323 19.0984C80.8557 20.7875 80.8268 24.3257 80.4753 26.0607C79.0509 33.0926 74.5714 38.0931 67.4772 40.5707L66.0927 41.0543L63.4967 41.0988C62.0689 41.1233 55.0987 41.163 48.0075 41.1874L35.1142 41.2314V22.7289V4.22639L49.7958 4.2827C59.4245 4.3196 64.8303 4.3822 65.503 4.46456Z" fill="#FFD991"/>
</svg>
