<svg width="14" height="14" viewBox="0 0 14 14" fill="none" xmlns="http://www.w3.org/2000/svg">
<path fill-rule="evenodd" clip-rule="evenodd" d="M1.79502 0.246057C2.10826 -0.0671917 2.69679 -0.100964 3.11929 0.2589L5.19974 2.33935C5.69761 2.83723 5.47232 3.64399 4.88288 3.82536L4.87187 3.82903C3.98829 4.12352 3.3424 5.11398 3.65139 6.0844C3.87399 6.99187 4.53993 7.94106 5.30479 8.69624C6.07574 9.45743 7.03031 10.1037 7.89908 10.3209L7.9119 10.3237C8.81101 10.5236 9.82678 10.0352 10.1396 9.09668L10.143 9.08557C10.3244 8.49615 11.1313 8.27089 11.6291 8.76876L13.7224 10.8621C14.0357 11.1753 14.0695 11.7638 13.7096 12.1863L12.302 13.5939C12.0475 13.8485 11.662 13.999 11.1162 14C10.5662 14.001 9.88785 13.8481 9.1167 13.5317C7.57618 12.8994 5.76083 11.6537 4.03783 9.93066C2.31646 8.2093 1.0892 6.39474 0.465817 4.85409C0.153796 4.08296 0.00205042 3.40261 2.08793e-05 2.84955C-0.0019897 2.30167 0.141324 1.91489 0.379512 1.66156L1.79502 0.246057Z" fill="#CE7115"/>
</svg>
