<svg width="85" height="113" viewBox="0 0 85 113" fill="none" xmlns="http://www.w3.org/2000/svg">
<circle cx="42.5" cy="70.5" r="42.5" fill="#2C3D32"/>
<path fill-rule="evenodd" clip-rule="evenodd" d="M39.5778 1.15151C37.5884 2.69287 37.5632 4.13748 39.5063 5.38632C40.3373 5.92065 41.0172 7.36762 41.0172 8.60164C41.0172 10.4839 40.6052 10.8466 38.4667 10.8466C32.1077 10.8466 24.424 15.6157 23.2102 20.3162C22.8929 21.5432 22.2372 22.5471 21.7527 22.5471C21.2682 22.5471 20.8713 23.3638 20.8713 24.3615C20.8713 25.3592 19.7381 26.9996 18.3531 28.0074C14.9666 30.4715 15.1781 31.1275 19.3604 31.1275H22.8859V54.0177C22.8859 75.904 22.9746 76.9695 24.8965 78.3174C26.2875 79.2917 26.6008 80.0132 25.9128 80.6552C24.1863 82.266 25.9854 82.5499 28.006 80.9852C29.7023 79.6716 31.462 79.4898 42.4889 79.4898C54.1916 79.4898 55.1878 79.6084 57.2095 81.2449L59.3772 83L58.6902 81.2426C58.243 80.0975 58.5542 79.0584 59.5837 78.262C60.7481 77.3595 61.1631 75.4406 61.1631 70.9617V64.886L67.0437 64.4725C70.2781 64.2456 74.3133 63.5037 76.0116 62.8236C83.0113 60.0201 85.6666 52.1448 82.9559 42.2212C80.4468 33.0332 75.7286 29.5675 65.7282 29.5675C61.5308 29.5675 61.1631 29.4107 61.1631 27.6174C61.1631 26.5448 61.6164 25.6673 62.1704 25.6673C62.7244 25.6673 63.1777 24.9652 63.1777 24.1072C63.1777 23.2492 62.7808 22.5471 62.2963 22.5471C61.8118 22.5471 61.143 21.4956 60.8116 20.2101C59.5182 15.2031 54.5905 11.8645 47.061 10.8926C44.2113 10.5252 43.477 10.0533 43.2323 8.43082C43.065 7.31614 43.6251 5.97602 44.4914 5.41908C46.6419 4.03685 46.4496 1.70533 44.1056 0.733404C41.5853 -0.311065 41.4514 -0.298576 39.5778 1.15151ZM49.133 12.4059C53.687 13.3856 57.5923 16.5564 59.4628 20.792L60.9274 24.1072L41.6548 24.0955C31.0551 24.0885 22.8839 23.8256 23.4963 23.5105C24.1088 23.1953 24.9086 21.6766 25.2742 20.1368C26.7993 13.7078 38.1253 10.0385 49.133 12.4059ZM60.1558 27.6174V29.5675H42.5282H24.9005V27.6174V25.6673H42.5282H60.1558V27.6174ZM22.8859 28.3974C22.8859 29.0979 21.9763 29.5573 20.6195 29.5425C18.4095 29.5183 18.4024 29.4894 20.3083 28.3724C22.7368 26.9504 22.8859 26.952 22.8859 28.3974ZM60.1558 32.6876C60.1558 34.1884 59.4839 34.2477 42.5282 34.2477C25.5724 34.2477 24.9005 34.1884 24.9005 32.6876C24.9005 31.1868 25.5724 31.1275 42.5282 31.1275C59.4839 31.1275 60.1558 31.1868 60.1558 32.6876ZM74.2045 32.2765C78.8935 34.1541 81.6777 39.6728 82.0866 47.8983C82.3848 53.9202 82.141 55.2798 80.3702 57.4608C77.3131 61.2245 72.6835 63.1028 66.4514 63.1059C61.833 63.1091 61.1631 62.9117 61.1631 61.549C61.1631 60.2775 61.835 59.9889 64.7884 59.9889C73.5145 59.9889 78.2931 55.9241 78.2811 48.5083C78.268 39.5129 73.6495 34.2477 65.7735 34.2477C61.835 34.2477 61.1631 34.0207 61.1631 32.6876C61.1631 31.3335 61.835 31.1275 66.2499 31.1275C69.0472 31.1275 72.6271 31.6447 74.2045 32.2765ZM40.8228 43.6081C40.992 48.1128 40.851 53.2907 40.5085 55.1137L39.886 58.4288H32.3938H24.9005V47.2486C24.9005 41.0987 25.2289 35.814 25.6298 35.5035C26.0307 35.1931 29.5431 35.0464 33.4363 35.1783L40.5136 35.4177L40.8228 43.6081ZM59.9312 46.9233L60.2092 58.4288H52.2506H44.2909L43.6614 55.9912C42.7991 52.6511 42.8636 36.1978 43.7419 35.5176C44.1328 35.2157 47.8718 35.0691 52.0521 35.1931L59.6522 35.4177L59.9312 46.9233ZM72.4569 37.1713C75.8767 39.4817 77.9245 48.6308 75.9754 52.8952C74.407 56.3282 70.7485 58.3649 65.6959 58.6176L61.6668 58.8188L61.3857 47.5684C61.1752 39.0901 61.423 36.1619 62.393 35.6853C64.1457 34.8257 70.3396 35.7399 72.4569 37.1713ZM26.9151 66.6707C26.9151 76.6123 26.5414 76.3697 41.8583 76.3697C50.516 76.3697 55.1113 76.0639 55.9252 75.4336C56.6917 74.84 57.1339 71.8455 57.1339 67.2432C57.1339 61.315 57.4099 58.4288 58.6449 58.4288C59.8848 58.4288 60.1558 61.3563 60.1558 67.6153C60.1558 78.8845 60.4268 78.7098 42.9089 78.7098C35.1074 78.7098 27.9264 78.3486 26.8486 77.9024C25.104 77.1793 24.9005 76.1996 24.9005 68.542C24.9005 63.3602 25.2974 58.4288 25.9078 58.4288C26.5011 58.4288 26.9151 62.7362 26.9151 66.6707Z" fill="#FFD991"/>
</svg>
