<svg width="94" height="99" viewBox="0 0 94 99" fill="none" xmlns="http://www.w3.org/2000/svg">
<circle cx="42.5" cy="56.5" r="42.5" fill="#2C3D32"/>
<path fill-rule="evenodd" clip-rule="evenodd" d="M75.0092 8.19937C65.4947 12.7036 57.477 16.1558 57.1923 15.8713C56.9087 15.5855 57.2411 14.2921 57.9326 12.9963C59.9367 9.24088 59.8246 8.15502 40.5944 8.15502C30.3675 8.15502 22 8.57487 22 9.08804C22 9.60121 22.652 10.6754 23.4492 11.4754C24.494 12.5239 24.7927 36.9081 24.5172 47.1622C24.1512 60.8067 24.2476 61.4994 26.845 63.9405C32.4733 69.232 42.4829 70.5313 51.0642 67.086C57.2306 64.61 58.4951 61.9263 58.1894 51.9685C57.7815 38.6692 57.95 18.4675 77.2057 9.24088C92.409 1.95735 95.8385 -0.0265574 93.1818 0.00026743C92.7019 0.00493262 84.5249 3.69396 75.0092 8.19937ZM48.9689 11.3541C44.3075 11.5769 36.9859 11.5746 32.6988 11.3519C28.4127 11.1279 32.2269 10.946 41.1755 10.9483C50.1241 10.9495 53.6315 11.1326 48.9689 11.3541ZM56.0057 45.5172C56.3579 52.4427 56.1568 59.9576 55.5572 61.083C51.3141 69.0407 28.5383 68.6232 25.9827 60.5408C25.569 59.2333 25.5992 51.7242 26.0513 45.0752L26.8718 13.9865H41.1209H55.3689L56.0057 45.5172Z" fill="#FFD991"/>
<path d="M55.5572 61.083C56.1568 59.9576 56.3579 52.4427 56.0057 45.5172L26.0513 45.0752C25.5992 51.7242 25.569 59.2333 25.9827 60.5408C28.5383 68.6232 51.3141 69.0407 55.5572 61.083Z" fill="#FFD991"/>
</svg>
