<svg width="123" height="18" viewBox="0 0 123 18" fill="none" xmlns="http://www.w3.org/2000/svg">
<path d="M9.47368 14.4663L15.3284 18L13.7747 11.34L18.9474 6.85895L12.1358 6.28105L9.47368 0L6.81158 6.28105L0 6.85895L5.17263 11.34L3.61895 18L9.47368 14.4663Z" fill="#FFD991"/>
<path d="M9.47368 14.4663L15.3284 18L13.7747 11.34L18.9474 6.85895L12.1358 6.28105L9.47368 0L6.81158 6.28105L0 6.85895L5.17263 11.34L3.61895 18L9.47368 14.4663Z" fill="#FFD991"/>
<path d="M35.4737 14.4663L41.3284 18L39.7747 11.34L44.9474 6.85895L38.1358 6.28105L35.4737 0L32.8116 6.28105L26 6.85895L31.1726 11.34L29.6189 18L35.4737 14.4663Z" fill="#FFD991"/>
<path d="M70.9474 6.85895L64.1358 6.27158L61.4737 0L58.8116 6.28105L52 6.85895L57.1726 11.34L55.6189 18L61.4737 14.4663L67.3284 18L65.7842 11.34L70.9474 6.85895ZM61.4737 12.6947L57.9116 14.8453L58.8589 10.7905L55.7137 8.06211L59.8632 7.70211L61.4737 3.88421L63.0937 7.71158L67.2432 8.07158L64.0979 10.8L65.0453 14.8547L61.4737 12.6947Z" fill="#FFD991"/>
<path d="M122.947 6.85895L116.136 6.27158L113.474 0L110.812 6.28105L104 6.85895L109.173 11.34L107.619 18L113.474 14.4663L119.328 18L117.784 11.34L122.947 6.85895ZM113.474 12.6947L109.912 14.8453L110.859 10.7905L107.714 8.06211L111.863 7.70211L113.474 3.88421L115.094 7.71158L119.243 8.07158L116.098 10.8L117.045 14.8547L113.474 12.6947Z" fill="#FFD991"/>
<path d="M96.9474 6.85895L90.1358 6.27158L87.4737 0L84.8116 6.28105L78 6.85895L83.1726 11.34L81.6189 18L87.4737 14.4663L93.3284 18L91.7842 11.34L96.9474 6.85895ZM87.4737 12.6947L83.9116 14.8453L84.8589 10.7905L81.7137 8.06211L85.8632 7.70211L87.4737 3.88421L89.0937 7.71158L93.2432 8.07158L90.0979 10.8L91.0453 14.8547L87.4737 12.6947Z" fill="#FFD991"/>
</svg>
