<svg width="16" height="16" viewBox="0 0 16 16" fill="none" xmlns="http://www.w3.org/2000/svg">
<path fill-rule="evenodd" clip-rule="evenodd" d="M0.22168 6.5C0.22168 3.18552 2.9072 0.5 6.22168 0.5C9.53616 0.5 12.2217 3.18552 12.2217 6.5C12.2217 7.89412 11.7488 9.17393 10.9528 10.192L10.4968 10.7752L9.91371 11.2311C8.89561 12.0271 7.6158 12.5 6.22168 12.5C2.9072 12.5 0.22168 9.81448 0.22168 6.5ZM10.7217 12.1344V11H11.8561C11.9253 11 11.9882 11.0267 12.0338 11.0723L15.1475 14.186L15.1482 14.1868C15.2451 14.2854 15.2448 14.4448 15.1463 14.5433L14.2619 15.4277L14.26 15.4296C14.1661 15.5245 14.0091 15.5272 13.9096 15.4277L10.794 12.3121C10.7484 12.2665 10.7217 12.2036 10.7217 12.1344ZM6.22168 2C3.73278 2 1.72168 4.01474 1.72168 6.5C1.72168 8.9889 3.73642 11 6.22168 11C8.71058 11 10.7217 8.98526 10.7217 6.5C10.7217 4.0111 8.70694 2 6.22168 2Z" fill="#FFD990"/>
</svg>
